{
	"message": "",
	"result": {
		"data": [{
			"key": 1,
			"name": "Alipay",
			"desc": "那是一种内在的东西， 他们到达不了，也无法触及的",
			"level": 1,
			"address": "127.0.0.1",
			"time": "2018-07-26 00:00:00"
		}, {
			"key": 2,
			"name": "Angular",
			"desc": "希望是一个好东西，也许是最好的，好东西是不会消亡的",
			"level": 1,
			"address": "10.10.1.1",
			"time": "2018-07-26 00:00:00"
		}, {
			"key": 3,
			"name": "Ant Design",
			"desc": "城镇中有那么多的酒馆，她却偏偏走进了我的酒馆",
			"level": 1,
			"address": "11.11.11.12",
			"time": "2018-07-26 00:00:00"
		}, {
			"key": 4,
			"name": "Ant Design Pro",
			"desc": "那时候我只会想自己想要什么，从不想自己拥有什么",
			"level": 1,
			"address": "192.0.0.1",
			"time": "2018-07-26 00:00:00"
		}, {
			"key": 5,
			"name": "Bootstrap",
			"desc": "凛冬将至",
			"level": 1,
			"address": "127.0.2.3",
			"time": "2018-07-26 00:00:00"
		}, {
			"key": 6,
			"name": "Vue",
			"desc": "生命就像一盒巧克力，结果往往出人意料",
			"level": 1,
			"address": "13.13.13.1",
			"time": "2018-07-26 00:00:00"
		}],
		"pageSize": 10,
		"pageNo": 0,
		"totalPage": 6,
		"totalCount": 57
	},
	"status": 200,
	"timestamp": 1534955098193
}